[gd_resource type="StandardMaterial3D" load_steps=2 format=3 uid="uid://dj0lnvyc64oye"]

[ext_resource type="Texture2D" uid="uid://bwd1ne8xuxvlb" path="res://addons/kenney_prototype_textures/light/texture_08.png" id="1_fba41"]

[resource]
shading_mode = 2
diffuse_mode = 3
specular_mode = 1
disable_ambient_light = true
albedo_texture = ExtResource("1_fba41")
uv1_triplanar = true
